2LS	gray	14
AProVE	seagreen	11
BRICK	seagreen	12
CBMC-Path	gold	10
CBMC	red	2
CMA-ES-Fuzz	coral	1
COASTAL	gold	10
CoVeriTeam-Verifier-AlgoSelection	magenta	4
CoVeriTeam-Verifier-ParallelPortfolio	coral	12
CoVeriTest	blue	3
CPA-BAM-BnB	olive	18
CPA-BAM-SMG	magenta	1
CPAchecker-2-1	blue	3
CPAchecker	blue	3
CPALockator	brown	19
CPA-Seq	blue	3
CPA-Tiger-MGP	magenta	11
Crux	red	11
CSeq	coral	11
Dartagnan	#008B8B	8
Deagle	red	4
DepthK	gray	19
DIVINE	#8B0000	1
DIVINE-explicit	#8B0000	2
DIVINE-SMT	#008B8B	9
EBF	gold	10
ESBMC	#556B2F	4
ESBMC-bkind-6-1	red	4
ESBMC-falsif-6-1	gold	10
ESBMC-incr	#556B2F	5
ESBMC-kind	#556B2F	6
FairFuzz	olive	18
Frama-C	brown	2
Frama-C-SV	brown	2
FuSeBMC	red	4
GACAL	#008B8B	10
Gazer-Theta	olive	3
GDart	brown	19
Goblint	#556B2F	8
Graves-CPA	coral	2
HybridTiger	magenta	12
Infer	greenyellow	5
Java-Ranger	magenta	8
JayHorn	navy	16
JBMC	red	15
JDart	olive	17
JPF	gold	17
KLEE	brown	19
Korn	#008B8B	1
LART	coral	14
Lazy-CSeq	red	7
Legion	coral	2
Legion-SymCC	red	5
LibKluzzer	greenyellow	5
Map2Check	red	18
PeSCo	#00008B	17
Pinaka	green	15
PredatorHP	navy	5
PRTest	coral	14
SESL	salmon	7
Skink	greenyellow	12
SMACK	coral	8
SPF	salmon	14
Symbiotic	orange	6
Theta	magenta	2
Tracer-X	salmon	7
TracerX	salmon	7
UAutomizer	salmon	6
UGemCutter	navy	3
UKojak	magenta	10
UTaipan	orange	14
VeriAbs	#FF69B4	3
VeriFuzz	gray	3
VIAP	navy	22
Yogar-CBMC-Parallel	#8B0000	20
Yogar-CBMC	salmon	8
